MontajeProyecto/simulation/qsim/alarma_intrusion.msim.vcd
$comment
	File created using the following command:
		vcd file alarma_intrusion.msim.vcd -direction
$end
$date
	Sat Jul 20 15:04:13 2019
$end
$version
	ModelSim Version 10.5b
$end
$timescale
	1ps
$end

$scope module particion_vhd_vec_tst $end
$var wire 1 ! alarma $end
$var wire 1 " clave $end
$var wire 1 # clk $end
$var wire 1 $ clk_1 $end
$var wire 1 % en1 $end
$var wire 1 & en2 $end
$var wire 1 ' en2s $end
$var wire 1 ( en3 $end
$var wire 1 ) en4 $end
$var wire 1 * en10s $end
$var wire 1 + en10se $end
$var wire 1 , en20s $end
$var wire 1 - estados [5] $end
$var wire 1 . estados [4] $end
$var wire 1 / estados [3] $end
$var wire 1 0 estados [2] $end
$var wire 1 1 estados [1] $end
$var wire 1 2 estados [0] $end
$var wire 1 3 ld2s $end
$var wire 1 4 ld10s $end
$var wire 1 5 ld10se $end
$var wire 1 6 ld20s $end
$var wire 1 7 ldn $end
$var wire 1 8 num1 [3] $end
$var wire 1 9 num1 [2] $end
$var wire 1 : num1 [1] $end
$var wire 1 ; num1 [0] $end
$var wire 1 < num2 [3] $end
$var wire 1 = num2 [2] $end
$var wire 1 > num2 [1] $end
$var wire 1 ? num2 [0] $end
$var wire 1 @ num3 [3] $end
$var wire 1 A num3 [2] $end
$var wire 1 B num3 [1] $end
$var wire 1 C num3 [0] $end
$var wire 1 D num4 [3] $end
$var wire 1 E num4 [2] $end
$var wire 1 F num4 [1] $end
$var wire 1 G num4 [0] $end
$var wire 1 H ok2s $end
$var wire 1 I ok10s $end
$var wire 1 J ok10se $end
$var wire 1 K ok20s $end
$var wire 1 L rstn $end
$var wire 1 M s1 $end
$var wire 1 N s2 $end
$var wire 1 O s3 $end
$var wire 1 P s10 [3] $end
$var wire 1 Q s10 [2] $end
$var wire 1 R s10 [1] $end
$var wire 1 S s10 [0] $end
$var wire 1 T s20 [4] $end
$var wire 1 U s20 [3] $end
$var wire 1 V s20 [2] $end
$var wire 1 W s20 [1] $end
$var wire 1 X s20 [0] $end
$var wire 1 Y se2 [3] $end
$var wire 1 Z se2 [2] $end
$var wire 1 [ se2 [1] $end
$var wire 1 \ se2 [0] $end
$var wire 1 ] se10 [3] $end
$var wire 1 ^ se10 [2] $end
$var wire 1 _ se10 [1] $end
$var wire 1 ` se10 [0] $end
$var wire 1 a sensores $end
$var wire 1 b sirena $end
$var wire 1 c sp $end
$var wire 1 d start $end
$var wire 1 e tecla $end
$var wire 1 f teclado [9] $end
$var wire 1 g teclado [8] $end
$var wire 1 h teclado [7] $end
$var wire 1 i teclado [6] $end
$var wire 1 j teclado [5] $end
$var wire 1 k teclado [4] $end
$var wire 1 l teclado [3] $end
$var wire 1 m teclado [2] $end
$var wire 1 n teclado [1] $end
$var wire 1 o teclado [0] $end
$var wire 1 p ua $end

$scope module i1 $end
$var wire 1 q gnd $end
$var wire 1 r vcc $end
$var wire 1 s unknown $end
$var wire 1 t devoe $end
$var wire 1 u devclrn $end
$var wire 1 v devpor $end
$var wire 1 w ww_devoe $end
$var wire 1 x ww_devclrn $end
$var wire 1 y ww_devpor $end
$var wire 1 z ww_ldn $end
$var wire 1 { ww_clk $end
$var wire 1 | ww_rstn $end
$var wire 1 } ww_tecla $end
$var wire 1 ~ ww_teclado [9] $end
$var wire 1 !! ww_teclado [8] $end
$var wire 1 "! ww_teclado [7] $end
$var wire 1 #! ww_teclado [6] $end
$var wire 1 $! ww_teclado [5] $end
$var wire 1 %! ww_teclado [4] $end
$var wire 1 &! ww_teclado [3] $end
$var wire 1 '! ww_teclado [2] $end
$var wire 1 (! ww_teclado [1] $end
$var wire 1 )! ww_teclado [0] $end
$var wire 1 *! ww_clave $end
$var wire 1 +! ww_num1 [3] $end
$var wire 1 ,! ww_num1 [2] $end
$var wire 1 -! ww_num1 [1] $end
$var wire 1 .! ww_num1 [0] $end
$var wire 1 /! ww_en1 $end
$var wire 1 0! ww_num2 [3] $end
$var wire 1 1! ww_num2 [2] $end
$var wire 1 2! ww_num2 [1] $end
$var wire 1 3! ww_num2 [0] $end
$var wire 1 4! ww_en2 $end
$var wire 1 5! ww_num3 [3] $end
$var wire 1 6! ww_num3 [2] $end
$var wire 1 7! ww_num3 [1] $end
$var wire 1 8! ww_num3 [0] $end
$var wire 1 9! ww_en3 $end
$var wire 1 :! ww_num4 [3] $end
$var wire 1 ;! ww_num4 [2] $end
$var wire 1 <! ww_num4 [1] $end
$var wire 1 =! ww_num4 [0] $end
$var wire 1 >! ww_en4 $end
$var wire 1 ?! ww_start $end
$var wire 1 @! ww_ok10s $end
$var wire 1 A! ww_en10s $end
$var wire 1 B! ww_ld10s $end
$var wire 1 C! ww_clk_1 $end
$var wire 1 D! ww_sp $end
$var wire 1 E! ww_sensores $end
$var wire 1 F! ww_s2 $end
$var wire 1 G! ww_s3 $end
$var wire 1 H! ww_s1 $end
$var wire 1 I! ww_ok10se $end
$var wire 1 J! ww_en10se $end
$var wire 1 K! ww_ld10se $end
$var wire 1 L! ww_ok2s $end
$var wire 1 M! ww_en2s $end
$var wire 1 N! ww_ld2s $end
$var wire 1 O! ww_ok20s $end
$var wire 1 P! ww_en20s $end
$var wire 1 Q! ww_ld20s $end
$var wire 1 R! ww_alarma $end
$var wire 1 S! ww_sirena $end
$var wire 1 T! ww_ua $end
$var wire 1 U! ww_estados [5] $end
$var wire 1 V! ww_estados [4] $end
$var wire 1 W! ww_estados [3] $end
$var wire 1 X! ww_estados [2] $end
$var wire 1 Y! ww_estados [1] $end
$var wire 1 Z! ww_estados [0] $end
$var wire 1 [! ww_s10 [3] $end
$var wire 1 \! ww_s10 [2] $end
$var wire 1 ]! ww_s10 [1] $end
$var wire 1 ^! ww_s10 [0] $end
$var wire 1 _! ww_s20 [4] $end
$var wire 1 `! ww_s20 [3] $end
$var wire 1 a! ww_s20 [2] $end
$var wire 1 b! ww_s20 [1] $end
$var wire 1 c! ww_s20 [0] $end
$var wire 1 d! ww_se10 [3] $end
$var wire 1 e! ww_se10 [2] $end
$var wire 1 f! ww_se10 [1] $end
$var wire 1 g! ww_se10 [0] $end
$var wire 1 h! ww_se2 [3] $end
$var wire 1 i! ww_se2 [2] $end
$var wire 1 j! ww_se2 [1] $end
$var wire 1 k! ww_se2 [0] $end
$var wire 1 l! \ldn~output_o\ $end
$var wire 1 m! \tecla~output_o\ $end
$var wire 1 n! \clave~output_o\ $end
$var wire 1 o! \num1[3]~output_o\ $end
$var wire 1 p! \num1[2]~output_o\ $end
$var wire 1 q! \num1[1]~output_o\ $end
$var wire 1 r! \num1[0]~output_o\ $end
$var wire 1 s! \en1~output_o\ $end
$var wire 1 t! \num2[3]~output_o\ $end
$var wire 1 u! \num2[2]~output_o\ $end
$var wire 1 v! \num2[1]~output_o\ $end
$var wire 1 w! \num2[0]~output_o\ $end
$var wire 1 x! \en2~output_o\ $end
$var wire 1 y! \num3[3]~output_o\ $end
$var wire 1 z! \num3[2]~output_o\ $end
$var wire 1 {! \num3[1]~output_o\ $end
$var wire 1 |! \num3[0]~output_o\ $end
$var wire 1 }! \en3~output_o\ $end
$var wire 1 ~! \num4[3]~output_o\ $end
$var wire 1 !" \num4[2]~output_o\ $end
$var wire 1 "" \num4[1]~output_o\ $end
$var wire 1 #" \num4[0]~output_o\ $end
$var wire 1 $" \en4~output_o\ $end
$var wire 1 %" \ok10s~output_o\ $end
$var wire 1 &" \en10s~output_o\ $end
$var wire 1 '" \ld10s~output_o\ $end
$var wire 1 (" \sensores~output_o\ $end
$var wire 1 )" \ok10se~output_o\ $end
$var wire 1 *" \en10se~output_o\ $end
$var wire 1 +" \ld10se~output_o\ $end
$var wire 1 ," \ok2s~output_o\ $end
$var wire 1 -" \en2s~output_o\ $end
$var wire 1 ." \ld2s~output_o\ $end
$var wire 1 /" \ok20s~output_o\ $end
$var wire 1 0" \en20s~output_o\ $end
$var wire 1 1" \ld20s~output_o\ $end
$var wire 1 2" \alarma~output_o\ $end
$var wire 1 3" \sirena~output_o\ $end
$var wire 1 4" \ua~output_o\ $end
$var wire 1 5" \estados[5]~output_o\ $end
$var wire 1 6" \estados[4]~output_o\ $end
$var wire 1 7" \estados[3]~output_o\ $end
$var wire 1 8" \estados[2]~output_o\ $end
$var wire 1 9" \estados[1]~output_o\ $end
$var wire 1 :" \estados[0]~output_o\ $end
$var wire 1 ;" \s10[3]~output_o\ $end
$var wire 1 <" \s10[2]~output_o\ $end
$var wire 1 =" \s10[1]~output_o\ $end
$var wire 1 >" \s10[0]~output_o\ $end
$var wire 1 ?" \s20[4]~output_o\ $end
$var wire 1 @" \s20[3]~output_o\ $end
$var wire 1 A" \s20[2]~output_o\ $end
$var wire 1 B" \s20[1]~output_o\ $end
$var wire 1 C" \s20[0]~output_o\ $end
$var wire 1 D" \se10[3]~output_o\ $end
$var wire 1 E" \se10[2]~output_o\ $end
$var wire 1 F" \se10[1]~output_o\ $end
$var wire 1 G" \se10[0]~output_o\ $end
$var wire 1 H" \se2[3]~output_o\ $end
$var wire 1 I" \se2[2]~output_o\ $end
$var wire 1 J" \se2[1]~output_o\ $end
$var wire 1 K" \se2[0]~output_o\ $end
$var wire 1 L" \clk~input_o\ $end
$var wire 1 M" \start~input_o\ $end
$var wire 1 N" \inst47|y.s0~0_combout\ $end
$var wire 1 O" \rstn~input_o\ $end
$var wire 1 P" \inst47|y.s0~q\ $end
$var wire 1 Q" \teclado[4]~input_o\ $end
$var wire 1 R" \teclado[6]~input_o\ $end
$var wire 1 S" \teclado[5]~input_o\ $end
$var wire 1 T" \inst4|Equal7~2_combout\ $end
$var wire 1 U" \teclado[7]~input_o\ $end
$var wire 1 V" \teclado[9]~input_o\ $end
$var wire 1 W" \teclado[8]~input_o\ $end
$var wire 1 X" \inst4|Equal4~0_combout\ $end
$var wire 1 Y" \teclado[0]~input_o\ $end
$var wire 1 Z" \teclado[3]~input_o\ $end
$var wire 1 [" \teclado[2]~input_o\ $end
$var wire 1 \" \teclado[1]~input_o\ $end
$var wire 1 ]" \inst4|Equal4~1_combout\ $end
$var wire 1 ^" \inst29~combout\ $end
$var wire 1 _" \inst200|temp~8_combout\ $end
$var wire 1 `" \inst200|temp~9_combout\ $end
$var wire 1 a" \inst200|temp~7_combout\ $end
$var wire 1 b" \inst200|temp~3_combout\ $end
$var wire 1 c" \inst200|temp~27_combout\ $end
$var wire 1 d" \inst4|Equal0~0_combout\ $end
$var wire 1 e" \clk_1~input_o\ $end
$var wire 1 f" \inst54|temp[0]~5_combout\ $end
$var wire 1 g" \inst44|temp~1_combout\ $end
$var wire 1 h" \inst47|y~58_combout\ $end
$var wire 1 i" \sp~input_o\ $end
$var wire 1 j" \inst47|Selector11~0_combout\ $end
$var wire 1 k" \inst47|Selector5~0_combout\ $end
$var wire 1 l" \inst47|y.s5~q\ $end
$var wire 1 m" \inst47|Selector6~0_combout\ $end
$var wire 1 n" \inst47|y.s6~q\ $end
$var wire 1 o" \inst47|Selector7~0_combout\ $end
$var wire 1 p" \inst47|y.s7~q\ $end
$var wire 1 q" \inst47|Selector8~0_combout\ $end
$var wire 1 r" \inst47|y.s8~q\ $end
$var wire 1 s" \inst47|Selector9~0_combout\ $end
$var wire 1 t" \inst47|y.s9~q\ $end
$var wire 1 u" \inst47|Selector10~0_combout\ $end
$var wire 1 v" \inst47|y.s10~q\ $end
$var wire 1 w" \inst47|Selector11~1_combout\ $end
$var wire 1 x" \inst47|y.s11~q\ $end
$var wire 1 y" \inst44|temp[0]~0_combout\ $end
$var wire 1 z" \inst44|Add0~1_combout\ $end
$var wire 1 {" \inst44|Add0~2_combout\ $end
$var wire 1 |" \inst44|Add0~0_combout\ $end
$var wire 1 }" \inst45|Equal0~0_combout\ $end
$var wire 1 ~" \inst47|Selector13~0_combout\ $end
$var wire 1 !# \inst47|Selector12~0_combout\ $end
$var wire 1 "# \inst47|y.s12~q\ $end
$var wire 1 ## \inst47|Selector13~1_combout\ $end
$var wire 1 $# \inst47|Selector13~2_combout\ $end
$var wire 1 %# \inst47|y.s13~q\ $end
$var wire 1 &# \s2~input_o\ $end
$var wire 1 '# \s3~input_o\ $end
$var wire 1 (# \s1~input_o\ $end
$var wire 1 )# \inst50~0_combout\ $end
$var wire 1 *# \inst47|Selector26~0_combout\ $end
$var wire 1 +# \inst47|y.s26~0_combout\ $end
$var wire 1 ,# \inst47|y.s26~q\ $end
$var wire 1 -# \inst47|Selector15~0_combout\ $end
$var wire 1 .# \inst47|Selector15~1_combout\ $end
$var wire 1 /# \inst48|temp~0_combout\ $end
$var wire 1 0# \inst47|Selector16~2_combout\ $end
$var wire 1 1# \inst47|Selector16~3_combout\ $end
$var wire 1 2# \inst47|y.s16~q\ $end
$var wire 1 3# \inst47|Selector17~2_combout\ $end
$var wire 1 4# \inst47|Selector17~3_combout\ $end
$var wire 1 5# \inst47|y.s17~q\ $end
$var wire 1 6# \inst47|Selector18~0_combout\ $end
$var wire 1 7# \inst47|Selector18~1_combout\ $end
$var wire 1 8# \inst47|y.s18~q\ $end
$var wire 1 9# \inst47|Selector19~2_combout\ $end
$var wire 1 :# \inst47|Selector19~3_combout\ $end
$var wire 1 ;# \inst47|y.s19~q\ $end
$var wire 1 <# \inst47|Selector20~0_combout\ $end
$var wire 1 =# \inst47|Selector20~1_combout\ $end
$var wire 1 ># \inst47|y.s20~q\ $end
$var wire 1 ?# \inst47|Selector21~2_combout\ $end
$var wire 1 @# \inst47|Selector21~3_combout\ $end
$var wire 1 A# \inst47|y.s21~q\ $end
$var wire 1 B# \inst47|WideOr21~0_combout\ $end
$var wire 1 C# \inst47|Selector22~0_combout\ $end
$var wire 1 D# \inst47|Selector22~1_combout\ $end
$var wire 1 E# \inst47|y.s22~q\ $end
$var wire 1 F# \inst47|Selector14~0_combout\ $end
$var wire 1 G# \inst48|temp[0]~1_combout\ $end
$var wire 1 H# \inst48|Add0~2_combout\ $end
$var wire 1 I# \inst48|Add0~0_combout\ $end
$var wire 1 J# \inst48|Add0~1_combout\ $end
$var wire 1 K# \inst49|Equal0~0_combout\ $end
$var wire 1 L# \inst47|Selector15~2_combout\ $end
$var wire 1 M# \inst47|y.s15~q\ $end
$var wire 1 N# \inst47|Selector14~1_combout\ $end
$var wire 1 O# \inst47|Selector14~2_combout\ $end
$var wire 1 P# \inst55|Equal0~0_combout\ $end
$var wire 1 Q# \inst47|Selector14~3_combout\ $end
$var wire 1 R# \inst47|Selector14~4_combout\ $end
$var wire 1 S# \inst47|Selector14~5_combout\ $end
$var wire 1 T# \inst47|Selector23~0_combout\ $end
$var wire 1 U# \inst47|y.s23~q\ $end
$var wire 1 V# \inst47|Selector14~6_combout\ $end
$var wire 1 W# \inst47|y.s14~q\ $end
$var wire 1 X# \inst54|temp[0]~15_combout\ $end
$var wire 1 Y# \inst54|temp[0]~6\ $end
$var wire 1 Z# \inst54|temp[1]~7_combout\ $end
$var wire 1 [# \inst54|temp[1]~8\ $end
$var wire 1 \# \inst54|temp[2]~9_combout\ $end
$var wire 1 ]# \inst54|temp[2]~10\ $end
$var wire 1 ^# \inst54|temp[3]~11_combout\ $end
$var wire 1 _# \inst54|temp[3]~12\ $end
$var wire 1 `# \inst54|temp[4]~13_combout\ $end
$var wire 1 a# \inst47|y.s25~0_combout\ $end
$var wire 1 b# \inst47|y.s25~q\ $end
$var wire 1 c# \inst47|Selector2~4_combout\ $end
$var wire 1 d# \inst52|temp~1_combout\ $end
$var wire 1 e# \inst47|Selector24~3_combout\ $end
$var wire 1 f# \inst47|Selector24~2_combout\ $end
$var wire 1 g# \inst47|y.s24~q\ $end
$var wire 1 h# \inst52|temp[0]~0_combout\ $end
$var wire 1 i# \inst52|Add0~0_combout\ $end
$var wire 1 j# \inst52|Add0~2_combout\ $end
$var wire 1 k# \inst52|Add0~1_combout\ $end
$var wire 1 l# \inst53|Equal0~0_combout\ $end
$var wire 1 m# \inst47|Selector1~0_combout\ $end
$var wire 1 n# \inst47|y.s1~q\ $end
$var wire 1 o# \inst47|Selector2~2_combout\ $end
$var wire 1 p# \inst47|Selector2~3_combout\ $end
$var wire 1 q# \inst47|y.s2~q\ $end
$var wire 1 r# \inst47|Selector3~0_combout\ $end
$var wire 1 s# \inst47|y.s3~q\ $end
$var wire 1 t# \inst47|Selector4~0_combout\ $end
$var wire 1 u# \inst47|y.s4~q\ $end
$var wire 1 v# \inst1|temp[0]~0_combout\ $end
$var wire 1 w# \inst4|Equal4~2_combout\ $end
$var wire 1 x# \inst4|Equal5~0_combout\ $end
$var wire 1 y# \inst4|Equal6~0_combout\ $end
$var wire 1 z# \inst4|Equal3~0_combout\ $end
$var wire 1 {# \inst4|Equal4~3_combout\ $end
$var wire 1 |# \inst200|temp~18_combout\ $end
$var wire 1 }# \inst200|temp~19_combout\ $end
$var wire 1 ~# \inst47|en1~0_combout\ $end
$var wire 1 !$ \inst200|temp[3]~20_combout\ $end
$var wire 1 "$ \inst4|Equal8~0_combout\ $end
$var wire 1 #$ \inst4|Equal7~3_combout\ $end
$var wire 1 $$ \inst4|Salida[3]~0_combout\ $end
$var wire 1 %$ \inst4|Equal2~0_combout\ $end
$var wire 1 &$ \inst200|temp~21_combout\ $end
$var wire 1 '$ \inst4|Salida[3]~1_combout\ $end
$var wire 1 ($ \inst4|Salida[3]~2_combout\ $end
$var wire 1 )$ \inst200|temp~22_combout\ $end
$var wire 1 *$ \inst4|Equal0~1_combout\ $end
$var wire 1 +$ \inst200|temp~23_combout\ $end
$var wire 1 ,$ \inst200|temp~24_combout\ $end
$var wire 1 -$ \inst2|temp[3]~0_combout\ $end
$var wire 1 .$ \inst18~0_combout\ $end
$var wire 1 /$ \inst200|temp~25_combout\ $end
$var wire 1 0$ \inst200|temp~26_combout\ $end
$var wire 1 1$ \inst18~1_combout\ $end
$var wire 1 2$ \inst3|temp[3]~0_combout\ $end
$var wire 1 3$ \inst18~2_combout\ $end
$var wire 1 4$ \inst18~3_combout\ $end
$var wire 1 5$ \inst18~4_combout\ $end
$var wire 1 6$ \inst43~0_combout\ $end
$var wire 1 7$ \inst43~1_combout\ $end
$var wire 1 8$ \inst43~2_combout\ $end
$var wire 1 9$ \inst43~3_combout\ $end
$var wire 1 :$ \inst43~4_combout\ $end
$var wire 1 ;$ \inst43~5_combout\ $end
$var wire 1 <$ \inst43~6_combout\ $end
$var wire 1 =$ \inst43~7_combout\ $end
$var wire 1 >$ \inst47|en2~0_combout\ $end
$var wire 1 ?$ \inst47|en3~0_combout\ $end
$var wire 1 @$ \inst47|en4~0_combout\ $end
$var wire 1 A$ \inst47|WideOr25~combout\ $end
$var wire 1 B$ \inst55|Equal0~1_combout\ $end
$var wire 1 C$ \inst47|WideOr17~0_combout\ $end
$var wire 1 D$ \inst47|WideOr23~0_combout\ $end
$var wire 1 E$ \inst47|WideOr23~combout\ $end
$var wire 1 F$ \inst47|WideOr24~0_combout\ $end
$var wire 1 G$ \inst47|WideOr24~combout\ $end
$var wire 1 H$ \inst47|WideOr17~combout\ $end
$var wire 1 I$ \inst47|WideOr18~0_combout\ $end
$var wire 1 J$ \inst47|WideOr18~1_combout\ $end
$var wire 1 K$ \inst47|WideOr18~2_combout\ $end
$var wire 1 L$ \inst47|WideOr19~0_combout\ $end
$var wire 1 M$ \inst47|WideOr19~1_combout\ $end
$var wire 1 N$ \inst47|WideOr19~2_combout\ $end
$var wire 1 O$ \inst47|WideOr20~0_combout\ $end
$var wire 1 P$ \inst47|WideOr20~1_combout\ $end
$var wire 1 Q$ \inst47|WideOr20~2_combout\ $end
$var wire 1 R$ \inst47|WideOr21~1_combout\ $end
$var wire 1 S$ \inst47|WideOr21~2_combout\ $end
$var wire 1 T$ \inst200|temp\ [3] $end
$var wire 1 U$ \inst200|temp\ [2] $end
$var wire 1 V$ \inst200|temp\ [1] $end
$var wire 1 W$ \inst200|temp\ [0] $end
$var wire 1 X$ \inst44|temp\ [3] $end
$var wire 1 Y$ \inst44|temp\ [2] $end
$var wire 1 Z$ \inst44|temp\ [1] $end
$var wire 1 [$ \inst44|temp\ [0] $end
$var wire 1 \$ \inst48|temp\ [3] $end
$var wire 1 ]$ \inst48|temp\ [2] $end
$var wire 1 ^$ \inst48|temp\ [1] $end
$var wire 1 _$ \inst48|temp\ [0] $end
$var wire 1 `$ \inst1|temp\ [3] $end
$var wire 1 a$ \inst1|temp\ [2] $end
$var wire 1 b$ \inst1|temp\ [1] $end
$var wire 1 c$ \inst1|temp\ [0] $end
$var wire 1 d$ \inst52|temp\ [3] $end
$var wire 1 e$ \inst52|temp\ [2] $end
$var wire 1 f$ \inst52|temp\ [1] $end
$var wire 1 g$ \inst52|temp\ [0] $end
$var wire 1 h$ \inst3|temp\ [3] $end
$var wire 1 i$ \inst3|temp\ [2] $end
$var wire 1 j$ \inst3|temp\ [1] $end
$var wire 1 k$ \inst3|temp\ [0] $end
$var wire 1 l$ \inst54|temp\ [4] $end
$var wire 1 m$ \inst54|temp\ [3] $end
$var wire 1 n$ \inst54|temp\ [2] $end
$var wire 1 o$ \inst54|temp\ [1] $end
$var wire 1 p$ \inst54|temp\ [0] $end
$var wire 1 q$ \inst2|temp\ [3] $end
$var wire 1 r$ \inst2|temp\ [2] $end
$var wire 1 s$ \inst2|temp\ [1] $end
$var wire 1 t$ \inst2|temp\ [0] $end
$var wire 1 u$ \inst47|ALT_INV_y.s0~q\ $end
$var wire 1 v$ \inst49|ALT_INV_Equal0~0_combout\ $end
$upscope $end
$upscope $end
$enddefinitions $end
#0
$dumpvars
0!
0"
1#
1$
0%
0&
0'
0(
0)
0*
0+
0,
13
14
15
16
17
0H
0I
0J
0K
0L
0M
0N
0O
0a
0b
1c
0d
0e
0p
0q
1r
xs
1t
1u
1v
1w
1x
1y
1z
1{
0|
0}
0*!
0/!
04!
09!
0>!
0?!
0@!
0A!
1B!
1C!
1D!
0E!
0F!
0G!
0H!
0I!
0J!
1K!
0L!
0M!
1N!
0O!
0P!
1Q!
0R!
0S!
0T!
1l!
0m!
0n!
0o!
0p!
0q!
0r!
0s!
0t!
0u!
0v!
0w!
0x!
0y!
0z!
0{!
0|!
0}!
0~!
0!"
0""
0#"
0$"
0%"
0&"
1'"
0("
0)"
0*"
1+"
0,"
0-"
1."
0/"
00"
11"
02"
03"
04"
05"
06"
07"
08"
09"
0:"
0;"
0<"
0="
0>"
0?"
0@"
0A"
0B"
0C"
0D"
0E"
0F"
0G"
0H"
0I"
0J"
0K"
1L"
0M"
0N"
0O"
0P"
0Q"
0R"
0S"
1T"
0U"
0V"
0W"
1X"
0Y"
0Z"
0["
0\"
1]"
0^"
0_"
1`"
0a"
0b"
0c"
1d"
1e"
1f"
0g"
0h"
1i"
0j"
0k"
0l"
0m"
0n"
0o"
0p"
0q"
0r"
0s"
0t"
0u"
0v"
0w"
0x"
1y"
0z"
0{"
0|"
0}"
0~"
0!#
0"#
0##
0$#
0%#
0&#
0'#
0(#
0)#
0*#
0+#
0,#
0-#
0.#
0/#
00#
01#
02#
03#
04#
05#
06#
07#
08#
09#
0:#
0;#
0<#
0=#
0>#
0?#
0@#
0A#
1B#
0C#
0D#
0E#
1F#
1G#
0H#
0I#
0J#
1K#
0L#
0M#
0N#
0O#
0P#
0Q#
1R#
0S#
0T#
0U#
0V#
0W#
1X#
0Y#
0Z#
1[#
0\#
0]#
0^#
1_#
0`#
0a#
0b#
0c#
0d#
0e#
0f#
0g#
1h#
0i#
0j#
0k#
0l#
0m#
0n#
0o#
0p#
0q#
0r#
0s#
0t#
0u#
1v#
1w#
0x#
0y#
0z#
0{#
1|#
0}#
0~#
1!$
1"$
1#$
0$$
1%$
1&$
0'$
0($
1)$
0*$
0+$
0,$
1-$
0.$
1/$
00$
01$
12$
03$
04$
05$
06$
17$
08$
09$
0:$
0;$
0<$
0=$
0>$
0?$
0@$
0A$
0B$
1C$
1D$
0E$
1F$
0G$
0H$
0I$
1J$
0K$
0L$
1M$
0N$
0O$
0P$
0Q$
0R$
0S$
1u$
0v$
0f
0g
0h
0i
0j
0k
0l
0m
0n
0o
0~
0!!
0"!
0#!
0$!
0%!
0&!
0'!
0(!
0)!
0+!
0,!
0-!
0.!
00!
01!
02!
03!
05!
06!
07!
08!
0:!
0;!
0<!
0=!
0U!
0V!
0W!
0X!
0Y!
0Z!
0[!
0\!
0]!
0^!
0_!
0`!
0a!
0b!
0c!
0d!
0e!
0f!
0g!
0h!
0i!
0j!
0k!
0T$
0U$
0V$
0W$
0X$
0Y$
0Z$
0[$
0\$
0]$
0^$
0_$
0`$
0a$
0b$
0c$
0d$
0e$
0f$
0g$
0h$
0i$
0j$
0k$
0l$
0m$
0n$
0o$
0p$
0q$
0r$
0s$
0t$
0-
0.
0/
00
01
02
08
09
0:
0;
0<
0=
0>
0?
0@
0A
0B
0C
0D
0E
0F
0G
0P
0Q
0R
0S
0T
0U
0V
0W
0X
0Y
0Z
0[
0\
0]
0^
0_
0`
$end
#1000
0#
0{
0L"
#2000
1#
1{
1L"
#3000
0#
0{
0L"
#4000
1#
1{
1L"
#5000
0#
0{
0L"
#6000
1#
1{
1L"
#7000
0#
0{
0L"
#8000
1#
1{
1L"
#9000
0#
0{
0L"
#10000
1#
0$
1{
0C!
0e"
1L"
#11000
0#
0{
0L"
#12000
1#
1{
1L"
#13000
0#
0{
0L"
#14000
1#
1{
1L"
#15000
0#
0{
0L"
#16000
1#
1{
1L"
#17000
0#
0{
0L"
#18000
1#
1{
1L"
#19000
0#
0{
0L"
#20000
1#
1$
1{
1C!
1e"
1L"
#21000
0#
0{
0L"
#22000
1#
1{
1L"
#23000
0#
0{
0L"
#24000
1#
1{
1L"
#25000
0#
0{
0L"
#26000
1#
1{
1L"
#27000
0#
0{
0L"
#28000
1#
1{
1L"
#29000
0#
0{
0L"
#30000
1#
0$
1{
0C!
0e"
1L"
#31000
0#
0{
0L"
#32000
1#
1{
1L"
#33000
0#
0{
0L"
#34000
1#
1{
1L"
#35000
0#
0{
0L"
#36000
1#
1{
1L"
#37000
0#
0{
0L"
#38000
1#
1{
1L"
#39000
0#
0{
0L"
#40000
1#
1$
1{
1C!
1e"
1L"
#41000
0#
0{
0L"
#42000
1#
1{
1L"
#43000
0#
0{
0L"
#44000
1#
1{
1L"
#45000
0#
0{
0L"
#46000
1#
1{
1L"
#47000
0#
0{
0L"
#48000
1#
1{
1L"
#49000
0#
0{
0L"
#50000
1#
0$
1{
0C!
0e"
1L"
#51000
0#
0{
0L"
#52000
1#
1{
1L"
#53000
0#
0{
0L"
#54000
1#
1{
1L"
#55000
0#
0{
0L"
#56000
1#
1{
1L"
#57000
0#
0{
0L"
#58000
1#
1{
1L"
#59000
0#
0{
0L"
#60000
1#
1$
1{
1C!
1e"
1L"
#61000
0#
0{
0L"
#62000
1#
1{
1L"
#63000
0#
0{
0L"
#64000
1#
1{
1L"
#65000
0#
0{
0L"
#66000
1#
1{
1L"
#67000
0#
0{
0L"
#68000
1#
1{
1L"
#69000
0#
0{
0L"
#70000
1#
0$
1{
0C!
0e"
1L"
#71000
0#
0{
0L"
#72000
1#
1{
1L"
#73000
0#
0{
0L"
#74000
1#
1{
1L"
#75000
0#
0{
0L"
#76000
1#
1{
1L"
#77000
0#
0{
0L"
#78000
1#
1{
1L"
#79000
0#
0{
0L"
#80000
1#
1$
1L
1{
1C!
1|
1O"
1e"
1L"
#81000
0#
0{
0L"
#82000
1#
1{
1L"
#83000
0#
0{
0L"
#84000
1#
1{
1L"
#85000
0#
0{
0L"
#86000
1#
1{
1L"
#87000
0#
0{
0L"
#88000
1#
1{
1L"
#89000
0#
0{
0L"
#90000
1#
0$
1{
0C!
0e"
1L"
#91000
0#
0{
0L"
#92000
1#
1{
1L"
#93000
0#
0{
0L"
#94000
1#
1{
1L"
#95000
0#
0{
0L"
#96000
1#
1{
1L"
#97000
0#
0{
0L"
#98000
1#
1{
1L"
#99000
0#
0{
0L"
#100000
1#
1$
1{
1C!
1e"
1L"
#101000
0#
0{
0L"
#102000
1#
1{
1L"
#103000
0#
0{
0L"
#104000
1#
1{
1L"
#105000
0#
0{
0L"
#106000
1#
1{
1L"
#107000
0#
0{
0L"
#108000
1#
1{
1L"
#109000
0#
0{
0L"
#110000
1#
0$
1{
0C!
0e"
1L"
#111000
0#
0{
0L"
#112000
1#
1{
1L"
#113000
0#
0{
0L"
#114000
1#
1{
1L"
#115000
0#
0{
0L"
#116000
1#
1{
1L"
#117000
0#
0{
0L"
#118000
1#
1{
1L"
#119000
0#
0{
0L"
#120000
1#
1$
1d
1{
1C!
1?!
1M"
1e"
1L"
1N"
1m#
#121000
0#
0{
0L"
#122000
1#
1{
1L"
1P"
1n#
0u$
1S$
1g"
0y"
1/#
0G#
0X#
1d#
0h#
0v#
0!$
0-$
02$
0l!
0'"
0+"
0."
01"
1:"
0z
0B!
0K!
0N!
0Q!
1Z!
07
04
05
03
06
12
#123000
0#
0{
0L"
#124000
1#
1{
1L"
#125000
0#
0{
0L"
#126000
1#
1{
1L"
#127000
0#
0{
0L"
#128000
1#
1{
1L"
#129000
0#
0{
0L"
#130000
1#
0$
1{
0C!
0e"
1L"
#131000
0#
0{
0L"
#132000
1#
1{
1L"
#133000
0#
0{
0L"
#134000
1#
1{
1L"
#135000
0#
0{
0L"
#136000
1#
1{
1L"
#137000
0#
0{
0L"
#138000
1#
1{
1L"
#139000
0#
0{
0L"
#140000
1#
1$
1{
1C!
1e"
1L"
#141000
0#
0{
0L"
#142000
1#
1{
1L"
#143000
0#
0{
0L"
#144000
1#
1{
1L"
#145000
0#
0{
0L"
#146000
1#
1{
1L"
#147000
0#
0{
0L"
#148000
1#
1{
1L"
#149000
0#
0{
0L"
#150000
1#
0$
1{
0C!
0e"
1L"
#151000
0#
0{
0L"
#152000
1#
1{
1L"
